…
pols_month
```

    ## # A tibble: 1,644 × 10
    ##    year  month    gov_gop sen_gop rep_gop gov_dem sen_dem rep_dem president
    ##    <chr> <chr>      <dbl>   <dbl>   <dbl>   <dbl>   <dbl>   <dbl> <chr>    
    ##  1 47    January       23      51     253      23      45     198 gop      
    ##  2 47    January       23      51     253      23      45     198 dem      
    ##  3 47    February      23      51     253      23      45     198 gop      
    ##  4 47    February      23      51     253      23      45     198 dem      
    ##  5 47    March         23      51     253      23      45     198 gop      
    ##  6 47    March         23      51     253      23      45     198 dem      
    ##  7 47    April         23      51     253      23      45     198 gop      
    ##  8 47    April         23      51     253      23      45     198 dem      
    ##  9 47    May           23      51     253      23      45     198 gop      
    ## 10 47    May           23      51     253      23      45     198 dem      
    ## # ℹ 1,634 more rows
    ## # ℹ 1 more variable: president_yn <dbl>
…
snp
```

    ## # A tibble: 787 × 3
    ##    year  month    close
    ##    <chr> <chr>    <dbl>
    ##  1 15    July     2080.
    ##  2 15    June     2063.
    ##  3 15    May      2107.
    ##  4 15    April    2086.
    ##  5 15    March    2068.
    ##  6 15    February 2104.
    ##  7 15    January  1995.
    ##  8 14    December 2059.
    ##  9 14    November 2068.
    ## 10 14    October  2018.
    ## # ℹ 777 more rows
…
unemployment
```

    ## # A tibble: 816 × 3
    ##    year  month     prcnt_unemployment
    ##    <chr> <chr>                  <dbl>
    ##  1 48    January                  3.4
    ##  2 48    February                 3.8
    ##  3 48    March                    4  
    ##  4 48    April                    3.9
    ##  5 48    May                      3.5
    ##  6 48    June                     3.6
    ##  7 48    July                     3.6
    ##  8 48    August                   3.9
    ##  9 48    September                3.8
    ## 10 48    October                  3.7
    ## # ℹ 806 more rows

Joining datasets:

1.  Merge `snp` into `pols`
2.  Merge `unemployment` into the result

``` r
pols_snp_unemployment <- left_join(pols_month, snp, by = c("year", "month")) %>% 
  left_join(unemployment, by = c("year", "month"))

pols_snp_unemployment
```

    ## # A tibble: 1,644 × 12
    ##    year  month    gov_gop sen_gop rep_gop gov_dem sen_dem rep_dem president
    ##    <chr> <chr>      <dbl>   <dbl>   <dbl>   <dbl>   <dbl>   <dbl> <chr>    
    ##  1 47    January       23      51     253      23      45     198 gop      
    ##  2 47    January       23      51     253      23      45     198 dem      
    ##  3 47    February      23      51     253      23      45     198 gop      
    ##  4 47    February      23      51     253      23      45     198 dem      
    ##  5 47    March         23      51     253      23      45     198 gop      
    ##  6 47    March         23      51     253      23      45     198 dem      
    ##  7 47    April         23      51     253      23      45     198 gop      
    ##  8 47    April         23      51     253      23      45     198 dem      
    ##  9 47    May           23      51     253      23      45     198 gop      
    ## 10 47    May           23      51     253      23      45     198 dem      
    ## # ℹ 1,634 more rows
    ## # ℹ 3 more variables: president_yn <dbl>, close <dbl>, prcnt_unemployment <dbl>
…
mr_trash
```

    ## # A tibble: 651 × 15
    ##    dumpster trash_type month  year date                weight_tons
    ##       <dbl> <chr>      <chr> <dbl> <dttm>                    <dbl>
    ##  1        1 mister     May    2014 2014-05-16 00:00:00        4.31
    ##  2        2 mister     May    2014 2014-05-16 00:00:00        2.74
    ##  3        3 mister     May    2014 2014-05-16 00:00:00        3.45
    ##  4        4 mister     May    2014 2014-05-17 00:00:00        3.1 
    ##  5        5 mister     May    2014 2014-05-17 00:00:00        4.06
    ##  6        6 mister     May    2014 2014-05-20 00:00:00        2.71
    ##  7        7 mister     May    2014 2014-05-21 00:00:00        1.91
    ##  8        8 mister     May    2014 2014-05-28 00:00:00        3.7 
    ##  9        9 mister     June   2014 2014-06-05 00:00:00        2.52
    ## 10       10 mister     June   2014 2014-06-11 00:00:00        3.76
    ## # ℹ 641 more rows
    ## # ℹ 9 more variables: volume_cubic_yards <dbl>, plastic_bottles <dbl>,
    ## #   polystyrene <dbl>, cigarette_butts <dbl>, glass_bottles <dbl>,
    ## #   plastic_bags <dbl>, wrappers <dbl>, sports_balls <int>, homes_powered <dbl>
Repeating the same process for `Professor Trash Wheel` and
`Gwynnda Trash Wheel`:

``` r
prof_trash <-
  readxl::read_excel("./data/202409 Trash Wheel Collection Data.xlsx", sheet = "Professor Trash Wheel", skip = 1) %>% 
  janitor::clean_names() %>% 
  drop_na(dumpster) %>% 
  mutate(trash_type = "professor") %>% 
  select(dumpster, trash_type, everything())

prof_trash
```

    ## # A tibble: 119 × 14
    ##    dumpster trash_type month     year date                weight_tons
    ##       <dbl> <chr>      <chr>    <dbl> <dttm>                    <dbl>
    ##  1        1 professor  January   2017 2017-01-02 00:00:00        1.79
    ##  2        2 professor  January   2017 2017-01-30 00:00:00        1.58
    ##  3        3 professor  February  2017 2017-02-26 00:00:00        2.32
    ##  4        4 professor  February  2017 2017-02-26 00:00:00        3.72
    ##  5        5 professor  February  2017 2017-02-28 00:00:00        1.45
    ##  6        6 professor  March     2017 2017-03-30 00:00:00        1.71
    ##  7        7 professor  April     2017 2017-04-01 00:00:00        1.82
    ##  8        8 professor  April     2017 2017-04-20 00:00:00        2.37
    ##  9        9 professor  May       2017 2017-05-10 00:00:00        2.64
    ## 10       10 professor  May       2017 2017-05-26 00:00:00        2.78
    ## # ℹ 109 more rows
    ## # ℹ 8 more variables: volume_cubic_yards <dbl>, plastic_bottles <dbl>,
    ## #   polystyrene <dbl>, cigarette_butts <dbl>, glass_bottles <dbl>,
    ## #   plastic_bags <dbl>, wrappers <dbl>, homes_powered <dbl>

``` r
gwynnda_trash <-
  readxl::read_excel("./data/202409 Trash Wheel Collection Data.xlsx", sheet = "Gwynnda Trash Wheel", skip = 1) %>% 
  janitor::clean_names() %>% 
  drop_na(dumpster) %>% 
  mutate(trash_type = "gwynnda") %>% 
  select(dumpster, trash_type, everything())

gwynnda_trash
```

    ## # A tibble: 263 × 13
    ##    dumpster trash_type month   year date                weight_tons
    ##       <dbl> <chr>      <chr>  <dbl> <dttm>                    <dbl>
    ##  1        1 gwynnda    July    2021 2021-07-03 00:00:00        0.93
    ##  2        2 gwynnda    July    2021 2021-07-07 00:00:00        2.26
    ##  3        3 gwynnda    July    2021 2021-07-07 00:00:00        1.62
    ##  4        4 gwynnda    July    2021 2021-07-16 00:00:00        1.76
    ##  5        5 gwynnda    July    2021 2021-07-30 00:00:00        1.53
    ##  6        6 gwynnda    August  2021 2021-08-11 00:00:00        2.06
    ##  7        7 gwynnda    August  2021 2021-08-14 00:00:00        1.9 
    ##  8        8 gwynnda    August  2021 2021-08-16 00:00:00        2.16
    ##  9        9 gwynnda    August  2021 2021-08-16 00:00:00        2.6 
    ## 10       10 gwynnda    August  2021 2021-08-17 00:00:00        3.21
    ## # ℹ 253 more rows
    ## # ℹ 7 more variables: volume_cubic_yards <dbl>, plastic_bottles <dbl>,
    ## #   polystyrene <dbl>, cigarette_butts <dbl>, plastic_bags <dbl>,
    ## #   wrappers <dbl>, homes_powered <dbl>
…
